[
    {
        "duration" : "3",
        "actions" : [
            {
                "actionType" : ".sparkColor",
                "actionName" : ".repeating"
            }
        ]
    },
    {
        "duration" : "1",
        "actions" : [
            {
                "actionType" : ".sparkColor",
                "actionName" : ".offLeds"
            }
        ]
    }
]
